Análisis de Redes Psicológicas
…
3. Carga y revisión de la data

df <- read_excel("df_completo.xlsx") %>% slice(1:1000)

df_variables <- df %>% select(Abandono:Bienestar)
df_variables

## # A tibble: 1,000 × 5
##    Abandono Autonomia Necesidad `Miedo Soledad` Bienestar
##       <dbl>     <dbl>     <dbl>           <dbl>     <dbl>
##  1        3         9         8               5        15
##  2        5         4         3               1         5
##  3       10         4         9               9         8
##  4       12         4        13               7         7
##  5        3         4         3               2        14
##  6       13         7        12              12        10
##  7        5         5         5               2        10
##  8        6         7         6               4         6
##  9        5         5         7               7        13
## 10        3         6        10               6        13
## # ℹ 990 more rows
…
